Laba4(2.0)/Lab4.vcd
$comment
Copyright (C) 1991-2010 Altera Corporation
Your use of Altera Corporation's design tools, logic functions 
and other software and tools, and its AMPP partner logic 
functions, and any output files from any of the foregoing 
(including device programming or simulation files), and any 
associated documentation or information are expressly subject 
to the terms and conditions of the Altera Program License 
Subscription Agreement, Altera MegaCore Function License 
Agreement, or other applicable license agreement, including, 
without limitation, that your use is for the sole purpose of 
programming logic devices manufactured by Altera and sold by 
Altera or its authorized distributors.  Please refer to the 
applicable agreement for further details.
$end

$date 
  10/25/2020 18:19:36 
$end
$version 
 QUARTUS_VCD_EXPORT 1.0 
$end
$timescale
  1 ps
$end
$scope module main $end
$var reg 8 ! address[7:0] $end
$var reg 1 " CLK $end
$var reg 8 # control[7:0] $end
$var reg 9 $ data[8:0] $end
$var reg 9 % 000[8:0] $end
$var reg 9 & 001[8:0] $end
$var reg 9 ' 010[8:0] $end
$var reg 9 ( 011[8:0] $end
$var reg 9 ) 100[8:0] $end
$var reg 9 * 101[8:0] $end
$var reg 9 + 110[8:0] $end
$var reg 9 , 111[8:0] $end
$upscope $end
$enddefinitions $end
#0
$dumpvars
bZ !
0"
b0 #
bZ $
bZ %
bZ &
bZ '
bZ (
bZ )
bZ *
bZ +
bZ ,
$end
#5000
b0 !
1"
b1 #
#10000
0"
b100000001 $
#15000
b1 !
1"
bZ $
#20000
0"
b1111 $
#25000
b1111 !
1"
b10 #
bZ $
#30000
0"
b11001 $
#35000
bZ001 !
1"
b100 #
b11001 &
#40000
0"
#45000
bZ !
1"
b0 #
bZ $
bZ &
#50000
0"
#55000
b10 !
1"
b1 #
#60000
0"
b110 $
#65000
bZ !
1"
b0 #
bZ $
#70000
0"
#75000
b110 !
1"
b1 #
#80000
0"
b10000111 $
#85000
bZ !
1"
b0 #
bZ $
#90000
0"
#95000
b111 !
1"
b1 #
#100000
0"
b10000 $
#105000
bZ !
1"
b0 #
bZ $
#110000
0"
#115000
b10000 !
1"
b1 #
#120000
0"
b100000000 $
#125000
b10001 !
1"
bZ $
#130000
0"
b1000 $
#135000
b1000 !
1"
b10 #
bZ $
#140000
0"
b10010 $
#145000
bZ000 !
1"
b100 #
b10010 %
#150000
0"
#155000
bZ !
1"
b0 #
bZ $
bZ %
#160000
0"
#165000
b10010 !
1"
b1 #
#170000
0"
b0 $
#175000
bZ !
1"
b0 #
bZ $
#180000
0"
#185000
b0 !
1"
b1 #
#190000
0"
b100000001 $
#195000
b1 !
1"
bZ $
#200000
0"
b1111 $
#205000
b1111 !
1"
b10 #
bZ $
#210000
0"
b11001 $
#215000
bZ001 !
1"
b100 #
b11001 &
#220000
0"
#225000
bZ !
1"
b0 #
bZ $
bZ &
#230000
0"
#235000
b10 !
1"
b1 #
#240000
0"
b110 $
#245000
bZ !
1"
b0 #
bZ $
#250000
0"
#255000
b110 !
1"
b1 #
#260000
0"
b10000111 $
#265000
bZ !
1"
b0 #
bZ $
#270000
0"
#275000
b111 !
1"
b1 #
#280000
0"
b10000 $
#285000
bZ !
1"
b0 #
bZ $
#290000
0"
#295000
b10000 !
1"
b1 #
#300000
0"
b100000000 $
#305000
b10001 !
1"
bZ $
#310000
0"
b1000 $
#315000
b1000 !
1"
b10 #
bZ $
#320000
0"
b10010 $
#325000
bZ000 !
1"
b100 #
b10010 %
#330000
0"
#335000
bZ !
1"
b0 #
bZ $
bZ %
#340000
0"
#345000
b10010 !
1"
b1 #
#350000
0"
b0 $
#355000
bZ !
1"
b0 #
bZ $
#360000
0"
#365000
b0 !
1"
b1 #
#370000
0"
b100000001 $
#375000
b1 !
1"
bZ $
#380000
0"
b1111 $
#385000
b1111 !
1"
b10 #
bZ $
#390000
0"
b11001 $
#395000
bZ001 !
1"
b100 #
b11001 &
#400000
0"
#405000
bZ !
1"
b0 #
bZ $
bZ &
#410000
0"
#415000
b10 !
1"
b1 #
#420000
0"
b110 $
#425000
bZ !
1"
b0 #
bZ $
#430000
0"
#435000
b110 !
1"
b1 #
#440000
0"
b10000111 $
#445000
bZ !
1"
b0 #
bZ $
#450000
0"
#455000
b111 !
1"
b1 #
#460000
0"
b10000 $
#465000
bZ !
1"
b0 #
bZ $
#470000
0"
#475000
b10000 !
1"
b1 #
#480000
0"
b100000000 $
#485000
b10001 !
1"
bZ $
#490000
0"
b1000 $
#495000
b1000 !
1"
b10 #
bZ $
#500000
0"
b10010 $
#505000
bZ000 !
1"
b100 #
b10010 %
#510000
0"
#515000
bZ !
1"
b0 #
bZ $
bZ %
#520000
0"
#525000
b10010 !
1"
b1 #
#530000
0"
b0 $
#535000
bZ !
1"
b0 #
bZ $
#540000
0"
#545000
b0 !
1"
b1 #
#550000
0"
b100000001 $
#555000
b1 !
1"
bZ $
#560000
0"
b1111 $
#565000
b1111 !
1"
b10 #
bZ $
#570000
0"
b11001 $
#575000
bZ001 !
1"
b100 #
b11001 &
#580000
0"
#585000
bZ !
1"
b0 #
bZ $
bZ &
#590000
0"
#595000
b10 !
1"
b1 #
#600000
0"
b110 $
#605000
bZ !
1"
b0 #
bZ $
#610000
0"
#615000
b110 !
1"
b1 #
#620000
0"
b10000111 $
#625000
bZ !
1"
b0 #
bZ $
#630000
0"
#635000
b111 !
1"
b1 #
#640000
0"
b10000 $
#645000
bZ !
1"
b0 #
bZ $
#650000
0"
#655000
b10000 !
1"
b1 #
#660000
0"
b100000000 $
#665000
b10001 !
1"
bZ $
#670000
0"
b1000 $
#675000
b1000 !
1"
b10 #
bZ $
#680000
0"
b10010 $
#685000
bZ000 !
1"
b100 #
b10010 %
#690000
0"
#695000
bZ !
1"
b0 #
bZ $
bZ %
#700000
0"
#705000
b10010 !
1"
b1 #
#710000
0"
b0 $
#715000
bZ !
1"
b0 #
bZ $
#720000
0"
#725000
b0 !
1"
b1 #
#730000
0"
b100000001 $
#735000
b1 !
1"
bZ $
#740000
0"
b1111 $
#745000
b1111 !
1"
b10 #
bZ $
#750000
0"
b11001 $
#755000
bZ001 !
1"
b100 #
b11001 &
#760000
0"
#765000
bZ !
1"
b0 #
bZ $
bZ &
#770000
0"
#775000
b10 !
1"
b1 #
#780000
0"
b110 $
#785000
bZ !
1"
b0 #
bZ $
#790000
0"
#795000
b110 !
1"
b1 #
#800000
0"
b10000111 $
#805000
bZ !
1"
b0 #
bZ $
#810000
0"
#815000
b111 !
1"
b1 #
#820000
0"
b10000 $
#825000
bZ !
1"
b0 #
bZ $
#830000
0"
#835000
b10000 !
1"
b1 #
#840000
0"
b100000000 $
#845000
b10001 !
1"
bZ $
#850000
0"
b1000 $
#855000
b1000 !
1"
b10 #
bZ $
#860000
0"
b10010 $
#865000
bZ000 !
1"
b100 #
b10010 %
#870000
0"
#875000
bZ !
1"
b0 #
bZ $
bZ %
#880000
0"
#885000
b10010 !
1"
b1 #
#890000
0"
b0 $
#895000
bZ !
1"
b0 #
bZ $
#900000
0"
#905000
b0 !
1"
b1 #
#910000
0"
b100000001 $
#915000
b1 !
1"
bZ $
#920000
0"
b1111 $
#925000
b1111 !
1"
b10 #
bZ $
#930000
0"
b11001 $
#935000
bZ001 !
1"
b100 #
b11001 &
#940000
0"
#945000
bZ !
1"
b0 #
bZ $
bZ &
#950000
0"
#955000
b10 !
1"
b1 #
#960000
0"
b110 $
#965000
bZ !
1"
b0 #
bZ $
#970000
0"
#975000
b110 !
1"
b1 #
#980000
0"
b10000111 $
#985000
bZ !
1"
b0 #
bZ $
#990000
0"
#995000
b111 !
1"
b1 #
