Laba4(2.0)/Lab4.vcd
$comment
Copyright (C) 1991-2010 Altera Corporation
Your use of Altera Corporation's design tools, logic functions 
and other software and tools, and its AMPP partner logic 
functions, and any output files from any of the foregoing 
(including device programming or simulation files), and any 
associated documentation or information are expressly subject 
to the terms and conditions of the Altera Program License 
Subscription Agreement, Altera MegaCore Function License 
Agreement, or other applicable license agreement, including, 
without limitation, that your use is for the sole purpose of 
programming logic devices manufactured by Altera and sold by 
Altera or its authorized distributors.  Please refer to the 
applicable agreement for further details.
$end

$date 
  10/23/2020 00:19:59 
$end
$version 
 QUARTUS_VCD_EXPORT 1.0 
$end
$timescale
  1 ps
$end
$scope module main $end
$var reg 8 ! address[7:0] $end
$var reg 1 " CLK $end
$var reg 8 # control[7:0] $end
$var reg 9 $ data[8:0] $end
$var reg 9 % 000[8:0] $end
$var reg 9 & 001[8:0] $end
$var reg 9 ' 010[8:0] $end
$var reg 9 ( 011[8:0] $end
$var reg 9 ) 100[8:0] $end
$var reg 9 * 101[8:0] $end
$var reg 9 + 110[8:0] $end
$var reg 9 , 111[8:0] $end
$upscope $end
$enddefinitions $end
#0
$dumpvars
bZ !
0"
b0 #
bZ $
bZ %
bZ &
bZ '
bZ (
bZ )
bZ *
bZ +
bZ ,
$end
#5000
b0 !
1"
b1 #
#10000
0"
b100000001 $
#15000
b1 !
1"
bZ $
#20000
0"
b1 $
#25000
1"
b10 #
bZ $
#30000
0"
b1011 $
#35000
bZ001 !
1"
b100 #
b1011 &
#40000
0"
#45000
bZ !
1"
b0 #
bZ $
bZ &
#50000
0"
#55000
b10 !
1"
b1 #
#60000
0"
b100000010 $
#65000
b11 !
1"
bZ $
#70000
0"
b1000 $
#75000
b1000 !
1"
b10 #
bZ $
#80000
0"
b10010 $
#85000
bZ010 !
1"
b100 #
b10010 '
#90000
0"
#95000
bZ !
1"
b0 #
bZ $
bZ '
#100000
0"
#105000
b100 !
1"
b1 #
#110000
0"
b100000100 $
#115000
b101 !
1"
bZ $
#120000
0"
b101 $
#125000
1"
b10 #
bZ $
#130000
0"
b1111 $
#135000
bZ100 !
1"
b100 #
b1111 )
#140000
0"
#145000
bZ !
1"
b0 #
bZ $
bZ )
#150000
0"
#155000
b110 !
1"
b1 #
#160000
0"
b100000010 $
#165000
b111 !
1"
bZ $
#170000
0"
b11 $
#175000
b11 !
1"
b10 #
bZ $
#180000
0"
b1101 $
#185000
bZ010 !
1"
b100 #
b1101 '
#190000
0"
#195000
bZ !
1"
b0 #
bZ $
bZ '
#200000
0"
#205000
b1000 !
1"
b1 #
#210000
0"
b10000 $
#215000
bZ !
1"
b0 #
bZ $
#220000
0"
#225000
b10000 !
1"
b1 #
#230000
0"
b100000000 $
#235000
b10001 !
1"
bZ $
#240000
0"
b1000 $
#245000
b1000 !
1"
b10 #
bZ $
#250000
0"
b10010 $
#255000
bZ000 !
1"
b100 #
b10010 %
#260000
0"
#265000
bZ !
1"
b0 #
bZ $
bZ %
#270000
0"
#275000
b10010 !
1"
b1 #
#280000
0"
b0 $
#285000
bZ !
1"
b0 #
bZ $
#290000
0"
#295000
b0 !
1"
b1 #
#300000
0"
b100000001 $
#305000
b1 !
1"
bZ $
#310000
0"
b1 $
#315000
1"
b10 #
bZ $
#320000
0"
b1011 $
#325000
bZ001 !
1"
b100 #
b1011 &
#330000
0"
#335000
bZ !
1"
b0 #
bZ $
bZ &
#340000
0"
#345000
b10 !
1"
b1 #
#350000
0"
b100000010 $
#355000
b11 !
1"
bZ $
#360000
0"
b1000 $
#365000
b1000 !
1"
b10 #
bZ $
#370000
0"
b10010 $
#375000
bZ010 !
1"
b100 #
b10010 '
#380000
0"
#385000
bZ !
1"
b0 #
bZ $
bZ '
#390000
0"
#395000
b100 !
1"
b1 #
#400000
0"
b100000100 $
#405000
b101 !
1"
bZ $
#410000
0"
b101 $
#415000
1"
b10 #
bZ $
#420000
0"
b1111 $
#425000
bZ100 !
1"
b100 #
b1111 )
#430000
0"
#435000
bZ !
1"
b0 #
bZ $
bZ )
#440000
0"
#445000
b110 !
1"
b1 #
#450000
0"
b100000010 $
#455000
b111 !
1"
bZ $
#460000
0"
b11 $
#465000
b11 !
1"
b10 #
bZ $
#470000
0"
b1101 $
#475000
bZ010 !
1"
b100 #
b1101 '
#480000
0"
#485000
bZ !
1"
b0 #
bZ $
bZ '
#490000
0"
#495000
b1000 !
1"
b1 #
#500000
0"
b10000 $
#505000
bZ !
1"
b0 #
bZ $
#510000
0"
#515000
b10000 !
1"
b1 #
#520000
0"
b100000000 $
#525000
b10001 !
1"
bZ $
#530000
0"
b1000 $
#535000
b1000 !
1"
b10 #
bZ $
#540000
0"
b10010 $
#545000
bZ000 !
1"
b100 #
b10010 %
#550000
0"
#555000
bZ !
1"
b0 #
bZ $
bZ %
#560000
0"
#565000
b10010 !
1"
b1 #
#570000
0"
b0 $
#575000
bZ !
1"
b0 #
bZ $
#580000
0"
#585000
b0 !
1"
b1 #
#590000
0"
b100000001 $
#595000
b1 !
1"
bZ $
#600000
0"
b1 $
#605000
1"
b10 #
bZ $
#610000
0"
b1011 $
#615000
bZ001 !
1"
b100 #
b1011 &
#620000
0"
#625000
bZ !
1"
b0 #
bZ $
bZ &
#630000
0"
#635000
b10 !
1"
b1 #
#640000
0"
b100000010 $
#645000
b11 !
1"
bZ $
#650000
0"
b1000 $
#655000
b1000 !
1"
b10 #
bZ $
#660000
0"
b10010 $
#665000
bZ010 !
1"
b100 #
b10010 '
#670000
0"
#675000
bZ !
1"
b0 #
bZ $
bZ '
#680000
0"
#685000
b100 !
1"
b1 #
#690000
0"
b100000100 $
#695000
b101 !
1"
bZ $
#700000
0"
b101 $
#705000
1"
b10 #
bZ $
#710000
0"
b1111 $
#715000
bZ100 !
1"
b100 #
b1111 )
#720000
0"
#725000
bZ !
1"
b0 #
bZ $
bZ )
#730000
0"
#735000
b110 !
1"
b1 #
#740000
0"
b100000010 $
#745000
b111 !
1"
bZ $
#750000
0"
b11 $
#755000
b11 !
1"
b10 #
bZ $
#760000
0"
b1101 $
#765000
bZ010 !
1"
b100 #
b1101 '
#770000
0"
#775000
bZ !
1"
b0 #
bZ $
bZ '
#780000
0"
#785000
b1000 !
1"
b1 #
#790000
0"
b10000 $
#795000
bZ !
1"
b0 #
bZ $
#800000
0"
#805000
b10000 !
1"
b1 #
#810000
0"
b100000000 $
#815000
b10001 !
1"
bZ $
#820000
0"
b1000 $
#825000
b1000 !
1"
b10 #
bZ $
#830000
0"
b10010 $
#835000
bZ000 !
1"
b100 #
b10010 %
#840000
0"
#845000
bZ !
1"
b0 #
bZ $
bZ %
#850000
0"
#855000
b10010 !
1"
b1 #
#860000
0"
b0 $
#865000
bZ !
1"
b0 #
bZ $
#870000
0"
#875000
b0 !
1"
b1 #
#880000
0"
b100000001 $
#885000
b1 !
1"
bZ $
#890000
0"
b1 $
#895000
1"
b10 #
bZ $
#900000
0"
b1011 $
#905000
bZ001 !
1"
b100 #
b1011 &
#910000
0"
#915000
bZ !
1"
b0 #
bZ $
bZ &
#920000
0"
#925000
b10 !
1"
b1 #
#930000
0"
b100000010 $
#935000
b11 !
1"
bZ $
#940000
0"
b1000 $
#945000
b1000 !
1"
b10 #
bZ $
#950000
0"
b10010 $
#955000
bZ010 !
1"
b100 #
b10010 '
#960000
0"
#965000
bZ !
1"
b0 #
bZ $
bZ '
#970000
0"
#975000
b100 !
1"
b1 #
#980000
0"
b100000100 $
#985000
b101 !
1"
bZ $
#990000
0"
b101 $
#995000
1"
b10 #
bZ $
